%YAML 1.1
%TAG !u! tag:unity3d.com,2011:
--- !u!162 &1
EditorUserSettings:
  m_ObjectHideFlags: 0
  serializedVersion: 4
  m_ConfigSettings:
    RecentlyUsedScenePath-0:
      value: 224247031146466b020215251f2d7c19020e57192f2d28353e663936efef7a2decee22f0
      flags: 0
    RecentlyUsedScenePath-1:
      value: 2242470311464664200f1e295f105c1518120b152129343b621a1e36ece51031e3eb39fce03f7129370bfb25
      flags: 0
    RecentlyUsedScenePath-2:
      value: 2242470311464664200f1e295f105c1518120b152129343b62041c23acf53a31f6fe
      flags: 0
    RecentlyUsedScenePath-3:
      value: 22424703114646680e0b0227036c78111b1208262d3115332827187df7ee3d2cfb
      flags: 0
    RecentlyUsedScenePath-4:
      value: 224247031146466806170e2d086c6c1313191d6521292f3e1e2a183de7ae2136ebf32f
      flags: 0
    RecentlyUsedScenePath-5:
      value: 2242470311464664200f1e295f105c1518120b152129343b621a1e36ece51b28f6ee39e7f4742a323016f6
      flags: 0
    RecentlyUsedScenePath-6:
      value: 2242470311464664200f1e295f105c1518120b152129343b62001327f0ef1231ece63aa7f234362820
      flags: 0
    RecentlyUsedScenePath-7:
      value: 2242470311464664200f1e295f105c1518120b152129343b62001327f0ef7a2decee22f0
      flags: 0
    RecentlyUsedScenePath-8:
      value: 2242470311464664200f1e295f105c1518120b152129343b621a1e36ece51939ebe91bece92f7129370bfb25
      flags: 0
    RecentlyUsedScenePath-9:
      value: 22424703114646762c3c271d1d224f5f3b1608392f2d2835633c133af6f9
      flags: 0
    vcSharedLogLevel:
      value: 0d5e400f0650
      flags: 0
  m_VCAutomaticAdd: 1
  m_VCDebugCom: 0
  m_VCDebugCmd: 0
  m_VCDebugOut: 0
  m_SemanticMergeMode: 2
  m_VCShowFailedCheckout: 1
  m_VCOverwriteFailedCheckoutAssets: 1
  m_VCProjectOverlayIcons: 1
  m_VCHierarchyOverlayIcons: 1
  m_VCOtherOverlayIcons: 1
  m_VCAllowAsyncUpdate: 1
